{
  "pagination": {
    "total": 14971,
    "limit": 2,
    "offset": 0,
    "total_pages": 7486,
    "current_page": 1,
    "next_url": "https:\/\/api.artic.edu\/api\/v1\/agents?page=2&limit=2"
  },
  "data": [
    {
      "id": 14309,
      "api_model": "agents",
      "api_link": "https:\/\/api.artic.edu\/api\/v1\/agents\/14309",
      "title": "Kosaka Gajin",
      "sort_title": "Kosaka Gajin",
      "alt_titles": [
        "K\u00f4saka Masanosuke",
        "Gajin",
        "K\u00f4saka Gajin"
      ],
      "is_artist": false,
      "birth_date": 1877,
      "death_date": 1953,
      "description": null,
      "ulan_id": null,
      "source_updated_at": "2022-12-06T11:33:41-06:00",
      "updated_at": "2022-12-06T11:35:57-06:00",
      "timestamp": "2022-12-06T16:50:40-06:00"
    },
    {
      "id": 35356,
      "api_model": "agents",
      "api_link": "https:\/\/api.artic.edu\/api\/v1\/agents\/35356",
      "title": "Yasuo Kuniyoshi",
      "sort_title": "Kuniyoshi, Yasuo",
      "alt_titles": [
        "Yasuo Kuniyoshi",
        "\u56fd\u5409 \u5eb7\u96c4"
      ],
      "is_artist": true,
      "birth_date": 1893,
      "death_date": 1953,
      "description": null,
      "ulan_id": null,
      "suggest_autocomplete_all": {
        "input": [
          "Yasuo Kuniyoshi",
          "Kuniyoshi, Yasuo",
          "Yasuo Kuniyoshi",
          "\u56fd\u5409 \u5eb7\u96c4"
        ],
        "weight": 2,
        "contexts": {
          "groupings": [
            "title"
          ]
        }
      },
      "source_updated_at": "2022-12-06T09:46:34-06:00",
      "updated_at": "2022-12-06T09:51:00-06:00",
      "timestamp": "2022-12-06T16:50:40-06:00"
    }
  ],
  "info": {
    "license_text": "The data in this response is licensed under a Creative Commons Zero (CC0) 1.0 designation and the Terms and Conditions of artic.edu.",
    "license_links": [
      "https:\/\/creativecommons.org\/publicdomain\/zero\/1.0\/",
      "https:\/\/www.artic.edu\/terms"
    ],
    "version": "1.5"
  },
  "config": {
    "iiif_url": "https:\/\/www.artic.edu\/iiif\/2",
    "website_url": "http:\/\/www.artic.edu"
  }
}